{"_index":"dev-met-workflow-1","_type":"workflow","_id":"11d4ccf0-d14c-4f27-b57e-d85a416e6791","_score":1,"_source":{"id":"11d4ccf0-d14c-4f27-b57e-d85a416e6791","type":"INGEST_VIDEO_RESOURCE","status":"FAILED","programId":"d4e8d9ec-9ec5-4a57-9c41-fba6fafbf38f","jobs":[]}}
{"_index":"dev-met-workflow-1","_type":"workflow","_id":"e967fc5d-a590-4abd-88fe-01a97b6eae68","_score":1,"_source":{"id":"e967fc5d-a590-4abd-88fe-01a97b6eae68","type":"INGEST_VIDEO_RESOURCE","status":"FAILED","programId":"d4e8d9ec-9ec5-4a57-9c41-fba6fafbf38f","jobs":[]}}
{"_index":"dev-met-workflow-1","_type":"workflow","_id":"0c3fb77c-adac-45b9-8e99-f1bfe2fc6279","_score":1,"_source":{"id":"0c3fb77c-adac-45b9-8e99-f1bfe2fc6279","type":"INGEST_VIDEO_RESOURCE","status":"FAILED","programId":"4e2b60e0-13bf-4326-8e9f-df849586e2bc","jobs":[]}}
{"_index":"dev-met-workflow-1","_type":"workflow","_id":"43574c90-f93d-48d4-99fe-e157b10cef12","_score":1,"_source":{"id":"43574c90-f93d-48d4-99fe-e157b10cef12","type":"INGEST_VIDEO_RESOURCE","status":"FAILED","programId":"6888b6ac-7a92-4c3e-a57d-256e80c081d7","jobs":[]}}
{"_index":"dev-met-workflow-1","_type":"workflow","_id":"7cde2e84-161e-4339-8a3d-3621a1c3c0d4","_score":1,"_source":{"id":"7cde2e84-161e-4339-8a3d-3621a1c3c0d4","type":"INGEST_VIDEO_RESOURCE","status":"FAILED","programId":"1006e56b-8056-4cff-bf12-e24bbe7b51c4","jobs":[]}}
{"_index":"dev-met-workflow-1","_type":"workflow","_id":"a8edc3ee-ff9a-4700-a177-515d9b97d669","_score":1,"_source":{"id":"a8edc3ee-ff9a-4700-a177-515d9b97d669","type":"INGEST_VIDEO_RESOURCE","status":"FAILED","programId":"6423fae5-f8c2-4b46-a711-00d09b7f1950","jobs":[]}}
{"_index":"dev-met-workflow-1","_type":"workflow","_id":"838f3b11-9243-46bf-a80e-4ca0951cfc58","_score":1,"_source":{"id":"838f3b11-9243-46bf-a80e-4ca0951cfc58","type":"INGEST_VIDEO_RESOURCE","status":"FAILED","programId":"8dc762e5-bdc3-4c95-9fd2-3f0ce679585f","jobs":[]}}
{"_index":"dev-met-workflow-1","_type":"workflow","_id":"df1eb224-d475-41ef-841c-cfca90593808","_score":1,"_source":{"id":"df1eb224-d475-41ef-841c-cfca90593808","type":"INGEST_VIDEO_RESOURCE","status":"FAILED","programId":"b6002907-dd66-464b-b9d6-5387ba221594","jobs":[]}}
{"_index":"dev-met-workflow-1","_type":"workflow","_id":"51a73158-b3c8-4fb2-9bb5-8054ae18d102","_score":1,"_source":{"id":"51a73158-b3c8-4fb2-9bb5-8054ae18d102","type":"INGEST_VIDEO_RESOURCE","status":"FAILED","programId":"a73cd4d5-35a9-4c45-9701-6b441d207c0c","jobs":[]}}
{"_index":"dev-met-workflow-1","_type":"workflow","_id":"e16c0005-a1e0-4c75-ba67-90f53ca3a93b","_score":1,"_source":{"id":"e16c0005-a1e0-4c75-ba67-90f53ca3a93b","type":"INGEST_VIDEO_RESOURCE","status":"FAILED","programId":"0b368e63-fb3a-46f2-accc-9aadd7c3f318","jobs":[]}}
{"_index":"dev-met-workflow-1","_type":"workflow","_id":"40bec473-b50b-4c3d-b333-8bb93073f5f5","_score":1,"_source":{"id":"40bec473-b50b-4c3d-b333-8bb93073f5f5","type":"INGEST_VIDEO_RESOURCE","status":"FAILED","programId":"939f848f-960b-4723-af0a-4106e8d342d8","jobs":[]}}
{"_index":"dev-met-workflow-1","_type":"workflow","_id":"967c048a-852b-412e-b9d1-e28d0b0581fc","_score":1,"_source":{"id":"967c048a-852b-412e-b9d1-e28d0b0581fc","type":"INGEST_VIDEO_RESOURCE","status":"FAILED","programId":"92d57135-34b0-4d3a-9619-1612f04b3c12","jobs":[]}}
{"_index":"dev-met-workflow-1","_type":"workflow","_id":"14dfa69f-7906-44dd-b517-c84ed0c186e1","_score":1,"_source":{"id":"14dfa69f-7906-44dd-b517-c84ed0c186e1","type":"INGEST_VIDEO_RESOURCE","status":"FAILED","programId":"86d0627c-f9a2-4ae9-945e-5474fe0ce860","jobs":[]}}
{"_index":"dev-met-workflow-1","_type":"workflow","_id":"2d5383a2-6449-49a9-bac9-3d50a6cc3136","_score":1,"_source":{"id":"2d5383a2-6449-49a9-bac9-3d50a6cc3136","type":"INGEST_VIDEO_RESOURCE","status":"FAILED","programId":"23bd3bba-1ba8-4e58-a4f2-ceba89aeec34","jobs":[]}}
{"_index":"dev-met-workflow-1","_type":"workflow","_id":"87dc6b76-37ea-4d9c-9d3a-da43f9660900","_score":1,"_source":{"id":"87dc6b76-37ea-4d9c-9d3a-da43f9660900","type":"INGEST_VIDEO_RESOURCE","status":"FAILED","programId":"953b7fb4-09c8-413b-bc2b-3705f6cc1fc5","jobs":[]}}
{"_index":"dev-met-workflow-1","_type":"workflow","_id":"9ba136cf-3c32-429d-89e6-109c2ce60b84","_score":1,"_source":{"id":"9ba136cf-3c32-429d-89e6-109c2ce60b84","type":"INGEST_VIDEO_RESOURCE","status":"FAILED","programId":"7116727a-57e2-48b2-9981-472afd03160a","jobs":[]}}
{"_index":"dev-met-workflow-1","_type":"workflow","_id":"b299c82b-a10c-4ab0-936f-a7e71e294a97","_score":1,"_source":{"id":"b299c82b-a10c-4ab0-936f-a7e71e294a97","type":"INGEST_VIDEO_RESOURCE","status":"FAILED","programId":"78e0e283-2244-4b40-9873-32b18aa70678","jobs":[]}}
{"_index":"dev-met-workflow-1","_type":"workflow","_id":"bf43d2a9-65e2-4283-92a8-0eb57432232c","_score":1,"_source":{"id":"bf43d2a9-65e2-4283-92a8-0eb57432232c","type":"INGEST_VIDEO_RESOURCE","status":"FAILED","programId":"0828a53c-d938-4a05-9844-be4bfd0a5f78","jobs":[]}}
{"_index":"dev-met-workflow-1","_type":"workflow","_id":"46186985-34ec-4e6d-ae0e-2cde595bf3e7","_score":1,"_source":{"id":"46186985-34ec-4e6d-ae0e-2cde595bf3e7","type":"INGEST_VIDEO_RESOURCE","status":"CREATED","programId":"214b6ee8-bb91-4cef-b80f-d9fa5b3500b4","jobs":[]}}
{"_index":"dev-met-workflow-1","_type":"workflow","_id":"a1765353-9227-4c6a-869f-65c32ad5a1f5","_score":1,"_source":{"id":"a1765353-9227-4c6a-869f-65c32ad5a1f5","type":"INGEST_VIDEO_RESOURCE","status":"FAILED","programId":"4b6b88bf-2341-4523-a711-cb1ce8c54132","jobs":[]}}
{"_index":"dev-met-workflow-1","_type":"workflow","_id":"4ca18ffd-872c-4635-8c6d-b1796e94eae0","_score":1,"_source":{"id":"4ca18ffd-872c-4635-8c6d-b1796e94eae0","type":"INGEST_VIDEO_RESOURCE","status":"FAILED","programId":"efbe8e02-c212-4abb-8b5b-2c6590d86f8f","jobs":[]}}
{"_index":"dev-met-workflow-1","_type":"workflow","_id":"15cf9b2f-34db-405b-834d-7970e18bc82d","_score":1,"_source":{"id":"15cf9b2f-34db-405b-834d-7970e18bc82d","type":"INGEST_VIDEO_RESOURCE","status":"FAILED","programId":"c3d89332-67ac-45f0-80c1-9dbd91a96431","jobs":[]}}
{"_index":"dev-met-workflow-1","_type":"workflow","_id":"d7fbe4a4-0d11-44e5-9413-f829264c36c1","_score":1,"_source":{"id":"d7fbe4a4-0d11-44e5-9413-f829264c36c1","type":"INGEST_VIDEO_RESOURCE","status":"FAILED","programId":"5261ad76-ce5c-4add-8726-2382ed3ae926","jobs":[]}}
{"_index":"dev-met-workflow-1","_type":"workflow","_id":"c17e56c6-a54c-4d66-a682-c489cd1911e4","_score":1,"_source":{"id":"c17e56c6-a54c-4d66-a682-c489cd1911e4","type":"INGEST_VIDEO_RESOURCE","status":"FAILED","programId":"10d8373c-1c72-4d85-859a-f0fa7e4c0f4c","jobs":[]}}
{"_index":"dev-met-workflow-1","_type":"workflow","_id":"a4a682b6-eaa0-4f0b-a048-ae4573b62644","_score":1,"_source":{"id":"a4a682b6-eaa0-4f0b-a048-ae4573b62644","type":"INGEST_VIDEO_RESOURCE","status":"FAILED","programId":"e4b93005-a82c-4c0a-af36-421aca457be8","jobs":[]}}
{"_index":"dev-met-workflow-1","_type":"workflow","_id":"07b5b0bc-867e-4639-b67c-cda47b7283a6","_score":1,"_source":{"id":"07b5b0bc-867e-4639-b67c-cda47b7283a6","type":"INGEST_VIDEO_RESOURCE","status":"FAILED","programId":"7510e3cf-b115-486e-abbb-6df0eae9921c","jobs":[]}}
{"_index":"dev-met-workflow-1","_type":"workflow","_id":"6ce2eaf9-7092-4f63-b883-6b533383b0b7","_score":1,"_source":{"id":"6ce2eaf9-7092-4f63-b883-6b533383b0b7","type":"INGEST_VIDEO_RESOURCE","status":"FAILED","programId":"e99d68e4-97e3-466d-9a8a-0818cc68bd38","jobs":[]}}
{"_index":"dev-met-workflow-1","_type":"workflow","_id":"98bfccbd-f8f1-4e8d-9f72-b1f2568919ae","_score":1,"_source":{"id":"98bfccbd-f8f1-4e8d-9f72-b1f2568919ae","type":"INGEST_VIDEO_RESOURCE","status":"FAILED","programId":"4abcc298-d3b6-41be-b81a-1095535992bc","jobs":[]}}
{"_index":"dev-met-workflow-1","_type":"workflow","_id":"6b83d7fb-a2f3-4247-ace0-b42e889ef623","_score":1,"_source":{"id":"6b83d7fb-a2f3-4247-ace0-b42e889ef623","type":"INGEST_VIDEO_RESOURCE","status":"CREATED","programId":"17c60567-6330-4ef9-843c-89c28bdf21a9","jobs":[]}}
{"_index":"dev-met-workflow-1","_type":"workflow","_id":"97b4d211-8098-40e4-a09c-3ef607b014fd","_score":1,"_source":{"id":"97b4d211-8098-40e4-a09c-3ef607b014fd","type":"INGEST_VIDEO_RESOURCE","status":"FAILED","programId":"e98a9622-6b96-4174-8f9b-f81cdaefa1b9","jobs":[]}}
{"_index":"dev-met-workflow-1","_type":"workflow","_id":"fe2ee064-75a9-4444-843e-e0eb2a909898","_score":1,"_source":{"id":"fe2ee064-75a9-4444-843e-e0eb2a909898","type":"INGEST_VIDEO_RESOURCE","status":"FAILED","programId":"3a212a0f-85bf-4b59-860f-d0114b3dd2b7","jobs":[]}}
{"_index":"dev-met-workflow-1","_type":"workflow","_id":"1b00c0e3-821f-4333-bd31-98ae88cb51a3","_score":1,"_source":{"id":"1b00c0e3-821f-4333-bd31-98ae88cb51a3","type":"INGEST_VIDEO_RESOURCE","status":"FAILED","programId":"5d8ae66d-ea69-4d1a-bd49-b045b4c6f1d3","jobs":[]}}
{"_index":"dev-met-workflow-1","_type":"workflow","_id":"5e03e408-721a-4677-ae5e-89682caf36f9","_score":1,"_source":{"id":"5e03e408-721a-4677-ae5e-89682caf36f9","type":"INGEST_VIDEO_RESOURCE","status":"FAILED","programId":"95c2338f-7f25-4ecd-b79c-c5939065f182","jobs":[]}}
{"_index":"dev-met-workflow-1","_type":"workflow","_id":"b0b4984d-fabc-4dc4-8759-e9efc481c7b5","_score":1,"_source":{"id":"b0b4984d-fabc-4dc4-8759-e9efc481c7b5","type":"INGEST_VIDEO_RESOURCE","status":"FAILED","programId":"c402f415-9143-4910-9c10-4941f72ce3bf","jobs":[]}}
{"_index":"dev-met-workflow-1","_type":"workflow","_id":"f4e354a5-afc0-4e20-a24a-472753730a53","_score":1,"_source":{"id":"f4e354a5-afc0-4e20-a24a-472753730a53","type":"INGEST_VIDEO_RESOURCE","status":"FAILED","programId":"5df683d8-733b-4538-a879-67f34afe288b","jobs":[]}}
{"_index":"dev-met-workflow-1","_type":"workflow","_id":"daad8afd-41ec-4a55-913e-499aa9d04f51","_score":1,"_source":{"id":"daad8afd-41ec-4a55-913e-499aa9d04f51","type":"INGEST_VIDEO_RESOURCE","status":"FAILED","programId":"c0f85abf-1c78-4687-b530-a15cd8d15a34","jobs":[]}}
{"_index":"dev-met-workflow-1","_type":"workflow","_id":"49364c0f-f0c9-405d-b05c-ddcceb0d52cc","_score":1,"_source":{"id":"49364c0f-f0c9-405d-b05c-ddcceb0d52cc","type":"INGEST_VIDEO_RESOURCE","status":"FAILED","programId":"1682959b-c420-4b47-85e8-021e6efcb1c6","jobs":[]}}
{"_index":"dev-met-workflow-1","_type":"workflow","_id":"a556dbcd-75e6-49f4-adfa-8572dc4813bf","_score":1,"_source":{"id":"a556dbcd-75e6-49f4-adfa-8572dc4813bf","type":"INGEST_VIDEO_RESOURCE","status":"FAILED","programId":"03204938-6aac-4613-906d-977ab64f1b9b","jobs":[]}}
{"_index":"dev-met-workflow-1","_type":"workflow","_id":"a2289db6-cd6e-4085-a90f-afcb1e708012","_score":1,"_source":{"id":"a2289db6-cd6e-4085-a90f-afcb1e708012","type":"INGEST_VIDEO_RESOURCE","status":"FAILED","programId":"a08a02dc-7d14-402f-87be-e15d6fa8b88a","jobs":[]}}
{"_index":"dev-met-workflow-1","_type":"workflow","_id":"fb002965-d518-4e62-af0d-efbf29ed9d09","_score":1,"_source":{"id":"fb002965-d518-4e62-af0d-efbf29ed9d09","type":"INGEST_VIDEO_RESOURCE","status":"FAILED","programId":"83b7dbb1-d52b-4708-b90c-b24c31cb173d","jobs":[]}}
{"_index":"dev-met-workflow-1","_type":"workflow","_id":"da315b30-a229-4126-99aa-4990f4a0239b","_score":1,"_source":{"id":"da315b30-a229-4126-99aa-4990f4a0239b","type":"INGEST_VIDEO_RESOURCE","status":"FAILED","programId":"c15a298b-6de7-461a-a92c-73de26dd578e","jobs":[]}}
{"_index":"dev-met-workflow-1","_type":"workflow","_id":"73fb9c48-c8f6-4ce3-9a0f-806c34aa37a3","_score":1,"_source":{"id":"73fb9c48-c8f6-4ce3-9a0f-806c34aa37a3","type":"INGEST_VIDEO_RESOURCE","status":"FAILED","programId":"5faa05af-b44e-4b6b-a769-d903bba3e81d","jobs":[]}}
{"_index":"dev-met-workflow-1","_type":"workflow","_id":"43c0e4be-6742-4a67-9efa-a87a6dbf5945","_score":1,"_source":{"id":"43c0e4be-6742-4a67-9efa-a87a6dbf5945","type":"INGEST_VIDEO_RESOURCE","status":"FAILED","programId":"0d9e494a-7d36-428e-a2d1-690b18466df6","jobs":[]}}
{"_index":"dev-met-workflow-1","_type":"workflow","_id":"d3e89114-7276-4ab1-a369-9edd18210261","_score":1,"_source":{"id":"d3e89114-7276-4ab1-a369-9edd18210261","type":"INGEST_VIDEO_RESOURCE","status":"FAILED","programId":"80aa348c-38bb-48f2-be72-6b4a051be682","jobs":[]}}
{"_index":"dev-met-workflow-1","_type":"workflow","_id":"82be1dcd-512d-4568-b5c6-f546afc41784","_score":1,"_source":{"id":"82be1dcd-512d-4568-b5c6-f546afc41784","type":"INGEST_VIDEO_RESOURCE","status":"FAILED","programId":"a06dd9c4-624a-4464-bc8b-9e3d24bf13d9","jobs":[]}}
{"_index":"dev-met-workflow-1","_type":"workflow","_id":"73a8cd2c-a92e-4c54-a3db-cd4412841afe","_score":1,"_source":{"id":"73a8cd2c-a92e-4c54-a3db-cd4412841afe","type":"INGEST_VIDEO_RESOURCE","status":"FAILED","programId":"cddc9e5a-e50b-4d74-82f2-97187a16a54d","jobs":[]}}
{"_index":"dev-met-workflow-1","_type":"workflow","_id":"8e6b1bd6-5aa8-4cde-a9c5-005adda919a9","_score":1,"_source":{"id":"8e6b1bd6-5aa8-4cde-a9c5-005adda919a9","type":"INGEST_VIDEO_RESOURCE","status":"CREATED","programId":"8424908a-7c12-4798-86fa-ca45ba91a9df","jobs":[]}}
{"_index":"dev-met-workflow-1","_type":"workflow","_id":"dd90ab9a-2f09-43c6-b5f8-3ef786b88999","_score":1,"_source":{"id":"dd90ab9a-2f09-43c6-b5f8-3ef786b88999","type":"INGEST_VIDEO_RESOURCE","status":"FAILED","programId":"f475f5fe-1615-4f64-9f02-8c90e20cf8b9","jobs":[]}}
{"_index":"dev-met-workflow-1","_type":"workflow","_id":"f9cfea63-7777-46db-b658-38bfa9958716","_score":1,"_source":{"id":"f9cfea63-7777-46db-b658-38bfa9958716","type":"INGEST_VIDEO_RESOURCE","status":"FAILED","programId":"6d7d3704-3bea-4b83-872d-0f2082f00777","jobs":[]}}
{"_index":"dev-met-workflow-1","_type":"workflow","_id":"3b62afdd-e29b-4066-82db-7586b1d24dd1","_score":1,"_source":{"id":"3b62afdd-e29b-4066-82db-7586b1d24dd1","type":"INGEST_VIDEO_RESOURCE","status":"CREATED","programId":"923538b0-74dd-4a7d-bfab-748e456bd9c1","jobs":[]}}
